[
  {
    "title": "Updated Item",
    "text": "item 1 text",
    "id": 1708438014803
  },
  {
    "title": "Updated Item",
    "text": "item 1 text",
    "id": 1708438022921
  },
  {
    "title": "Updated Item",
    "text": "item 1 text",
    "id": 1708438029924
  }
]